C:\Users\Scott\MIT Y3 S1 UNSW\COMP9322\Assignment 2\test\FoundITService\src\main\java\au\edu\soacourse\profile\dao\DAOConnection.java
C:\Users\Scott\MIT Y3 S1 UNSW\COMP9322\Assignment 2\test\FoundITService\src\main\java\au\edu\soacourse\profile\HelloWorld2.java
C:\Users\Scott\MIT Y3 S1 UNSW\COMP9322\Assignment 2\test\FoundITService\src\main\java\au\edu\soacourse\profile\dao\BooksDao.java
C:\Users\Scott\MIT Y3 S1 UNSW\COMP9322\Assignment 2\test\FoundITService\src\main\java\au\edu\soacourse\profile\model\Book.java
C:\Users\Scott\MIT Y3 S1 UNSW\COMP9322\Assignment 2\test\FoundITService\src\main\java\au\edu\soacourse\profile\ProfileResource.java
C:\Users\Scott\MIT Y3 S1 UNSW\COMP9322\Assignment 2\test\FoundITService\src\main\java\au\edu\soacourse\profile\dao\ProfileDAO.java
C:\Users\Scott\MIT Y3 S1 UNSW\COMP9322\Assignment 2\test\FoundITService\src\main\java\au\edu\soacourse\profile\model\ApplicantProfileBean.java
C:\Users\Scott\MIT Y3 S1 UNSW\COMP9322\Assignment 2\test\FoundITService\src\main\java\au\edu\soacourse\profile\JsonBean.java
C:\Users\Scott\MIT Y3 S1 UNSW\COMP9322\Assignment 2\test\FoundITService\src\main\java\au\edu\soacourse\profile\dao\ProfileDAOImpl.java
C:\Users\Scott\MIT Y3 S1 UNSW\COMP9322\Assignment 2\test\FoundITService\src\main\java\au\edu\soacourse\profile\BooksResource.java
